Statistics in R with the tidyverse
…
# This is not the same as using `|` which is an OR condition
un_member_states_2024 |> 
  filter(continent == "Africa" | gdp_per_capita > 5000)

# A tibble: 158 × 39
   country             iso   official_state_name continent region capital_city capital_population capital_perc_of_coun…¹
   <chr>               <chr> <chr>               <fct>     <chr>  <chr>                     <dbl>                  <dbl>
 1 Albania             ALB   The Republic of Al… Europe    South… Tirana                   557422                   19.5
 2 Algeria             DZA   The People's Democ… Africa    North… Algiers                 3915811                    8.9
 3 Andorra             AND   The Principality o… Europe    South… Andorra la …              22873                   28.9
 4 Angola              AGO   The Republic of An… Africa    Centr… Luanda                  2571861                    7.5
 5 Antigua and Barbuda ATG   Antigua and Barbuda North Am… Carib… St. John's                22219                   23.8
 6 Argentina           ARG   The Argentine Repu… South Am… South… Buenos Aires            3120612                    6.9
 7 Armenia             ARM   The Republic of Ar… Asia      Middl… Yerevan                 1096100                   39.3
 8 Australia           AUS   The Commonwealth o… Oceania   Austr… Canberra                 431380                    1.7
 9 Austria             AUT   The Republic of Au… Europe    Weste… Vienna                  1962779                   22  
10 Azerbaijan          AZE   The Republic of Az… Asia      Middl… Baku                    2303100                   22.3
# ℹ 148 more rows
# ℹ abbreviated name: ¹​capital_perc_of_country
# ℹ 31 more variables: capital_data_year <int>, gdp_per_capita <dbl>, gdp_per_capita_year <dbl>,
#   summers_competed_in <dbl>, summer_golds <int>, summer_silvers <int>, summer_bronzes <int>, summer_total <int>,
#   winters_competed_in <int>, winter_golds <int>, winter_silvers <int>, winter_bronzes <int>, winter_total <int>,
#   combined_competed_ins <int>, combined_golds <int>, combined_silvers <int>, combined_bronzes <int>,
#   combined_total <int>, driving_side <chr>, obesity_rate_2024 <dbl>, obesity_rate_2016 <dbl>, …
…
Explanation:

- mutate(): Adds a new column called gdp_category. - case_when(): Categorizes countries based on their GDP per capita into “High”, “Medium”, or “Low” categories.

23. Arranging Rows with arrange()

The arrange() function sorts the rows of a data frame. By default, it sorts in ascending order, but you can sort in descending order using the desc() function.

# Arrange countries by population in descending order
top_populated_countries <- un_member_states_2024 |> 
  arrange(desc(population_2024))
top_populated_countries

# A tibble: 193 × 40
   country       iso   official_state_name       continent region capital_city capital_population capital_perc_of_coun…¹
   <chr>         <chr> <chr>                     <fct>     <chr>  <chr>                     <dbl>                  <dbl>
 1 China         CHN   The People's Republic of… Asia      Easte… Beijing                21542000                    1.5
 2 India         IND   The Republic of India     Asia      South… New Delhi                249998                    0  
 3 United States USA   The United States of Ame… North Am… North… Washington,…             670050                    0.2
 4 Indonesia     IDN   The Republic of Indonesia Asia      South… Jakarta                10562088                    3.9
 5 Pakistan      PAK   The Islamic Republic of … Asia      South… Islamabad               1014825                    0.4
 6 Nigeria       NGA   The Federal Republic of … Africa    Weste… Abuja                   1235880                    0.6
 7 Brazil        BRA   The Federative Republic … South Am… South… Brasília                2648532                    1.2
 8 Bangladesh    BGD   The People's Republic of… Asia      South… Dhaka                   8906039                    5.3
 9 Russia        RUS   The Russian Federation    Europe    Easte… Moscow                 13104177                    9  
10 Mexico        MEX   The United Mexican States North Am… Centr… Mexico City             9209944                    7.3
# ℹ 183 more rows
# ℹ abbreviated name: ¹​capital_perc_of_country
# ℹ 32 more variables: capital_data_year <int>, gdp_per_capita <dbl>, gdp_per_capita_year <dbl>,
#   summers_competed_in <dbl>, summer_golds <int>, summer_silvers <int>, summer_bronzes <int>, summer_total <int>,
#   winters_competed_in <int>, winter_golds <int>, winter_silvers <int>, winter_bronzes <int>, winter_total <int>,
#   combined_competed_ins <int>, combined_golds <int>, combined_silvers <int>, combined_bronzes <int>,
#   combined_total <int>, driving_side <chr>, obesity_rate_2024 <dbl>, obesity_rate_2016 <dbl>, …

Explanation:

- arrange(desc(population_2024)): Sorts the countries from highest to lowest population.

24. Selecting Specific Columns with select()

The select() function allows you to choose specific columns from a data frame. This is useful when you only need to work with a subset of variables.

# Select country name, continent, and population
selected_data <- un_member_states_2024 |> 
  select(country, continent, population_2024)
selected_data

# A tibble: 193 × 3
   country             continent     population_2024
   <chr>               <fct>                   <dbl>
 1 Afghanistan         Asia                 40121552
 2 Albania             Europe                3107100
 3 Algeria             Africa               47022473
 4 Andorra             Europe                  85370
 5 Angola              Africa               37202061
 6 Antigua and Barbuda North America          102634
 7 Argentina           South America        46994384
 8 Armenia             Asia                  2976765
 9 Australia           Oceania              26768598
10 Austria             Europe                8967982
# ℹ 183 more rows
…
