Statistics in R with the tidyverse
…
23. Arranging Rows with arrange()

# Arrange respondents by years coding in descending order
data_dev_survey |> 
  arrange(desc(years_code))

# A tibble: 1,183 × 25
   response_id work_as_dev    age   employment remote_work coding_activities ed_level dev_type years_code years_code_pro
         <dbl> <chr>          <chr> <chr>      <chr>       <chr>             <chr>    <chr>         <dbl>          <dbl>
 1       33252 I am a develo… 65 y… Employed,… Remote      Hobby             Master’… Data sc…         50             50
 2       32151 I am a develo… 55-6… Employed,… Remote      I don’t code out… Some co… Databas…         47             45
 3       88354 I am a develo… 55-6… Employed,… Hybrid (so… Hobby;Freelance/… Master’… Enginee…         46             38
 4       40023 I am a develo… 65 y… Employed,… Remote      I don’t code out… Some co… Databas…         45             42
 5       38567 I am not prim… 45-5… Independe… Hybrid (so… Hobby;Profession… Associa… Databas…         44             35
 6       28489 I am a develo… 55-6… Employed,… Remote      Hobby;Contribute… Bachelo… Enginee…         43             40
 7       36249 I am a develo… 55-6… Employed,… In-person   Hobby             Bachelo… Data or…         42             30
 8       10923 I am a develo… 45-5… Employed,… Hybrid (so… I don’t code out… Bachelo… Enginee…         41             33
 9       50951 I am not prim… 55-6… Employed,… Remote      Hobby;Contribute… Master’… Data or…         41             35
10       81625 I am not prim… 65 y… Employed,… Hybrid (so… Professional dev… Bachelo… Enginee…         41             38
# ℹ 1,173 more rows
# ℹ 15 more variables: coding_experience_category <chr>, org_size <chr>, country <chr>,
#   language_have_worked_with <chr>, language_want_to_work_with <chr>, op_sys_professional_use <chr>, ai_view <chr>,
#   ai_trust <chr>, ic_or_manager <chr>, work_exp <dbl>, industry <chr>, us_or_not <chr>, plans_to_use_ai <chr>,
#   converted_comp_yearly <dbl>, survey_completion_date <date>

24. Selecting Specific Columns with select()

# After doing the previous arranging, select id, developer type, and professional
# coding experience columns
selected_data <- data_dev_survey |> 
  arrange(desc(years_code)) |> 
  select(response_id, dev_type, years_code_pro)
selected_data

# A tibble: 1,183 × 3
   response_id dev_type                                      years_code_pro
         <dbl> <chr>                                                  <dbl>
 1       33252 Data scientist or machine learning specialist             50
 2       32151 Database administrator                                    45
 3       88354 Engineer, data                                            38
 4       40023 Database administrator                                    42
 5       38567 Database administrator                                    35
 6       28489 Engineer, data                                            40
 7       36249 Data or business analyst                                  30
 8       10923 Engineer, data                                            33
 9       50951 Data or business analyst                                  35
10       81625 Engineer, data                                            38
# ℹ 1,173 more rows
…
  ungroup() |> 
  mutate(
    salary_category = case_when(
      avg_salary > 1e5 ~ "High",
      avg_salary > 5e4 ~ "Medium",
      TRUE ~ "Low"
    )
  ) |>
  arrange(desc(avg_years_code_pro)) |>
  select(country, 
         `Average Years Coding` = avg_years_code_pro, 
         `Average Salary` = avg_salary, 
         salary_category)

# A tibble: 72 × 4
   country            `Average Years Coding` `Average Salary` salary_category
   <chr>                               <dbl>            <dbl> <chr>          
 1 Norway                               20             90613  Medium         
 2 Argentina                            19             26544. Low            
 3 Russian Federation                   17              6188  Low            
 4 China                                16                 3  Low            
 5 South Africa                         16             58655  Medium         
 6 Belgium                              15.3          114390. High           
 7 Finland                              15.2           72018  Medium         
 8 Italy                                15.1           51556  Medium         
 9 Cuba                                 15             24000  Low            
10 Bolivia                              14             60000  Medium         
# ℹ 62 more rows
…
