Statistics in R with the tidyverse
…
# A tibble: 1 × 1
  prop_bball
       <dbl>
1        0.3

7. Take 1000 Samples of Size 10 from the Population

# Use `rep_slice_sample()` from the `infer` package
ball_samples <- store_ball_inventory |> 
  rep_slice_sample(n = 10, reps = 1000, replace = FALSE)
ball_samples

# A tibble: 10,000 × 3
# Groups:   replicate [1,000]
   replicate ball_ID ball_type        
       <int>   <int> <chr>            
 1         1     940 Basketball       
 2         1    1052 American Football
 3         1     749 Football/Soccer  
 4         1     497 Tennis Ball      
 5         1    1081 Tennis Ball      
 6         1     737 Basketball       
 7         1     979 Pickleball       
 8         1     944 Tennis Ball      
 9         1    1112 Tennis Ball      
10         1     855 Tennis Ball      
# ℹ 9,990 more rows
…
# Simulate electricity usage (in kWh) for homes using fans
fan_usage <- rnorm(n_fans, mean = 800, sd = 150)  # Lower mean for fan usage

# Combine into a single data frame
electricity_usage_phoenix <- tibble(
  home_ID = 1:(n_ac + n_fans),
  cooling_system = c(rep("AC", n_ac), rep("Fans", n_fans)),
  usage_kWh = c(ac_usage, fan_usage)
)

# View the data
electricity_usage_phoenix

# A tibble: 600,000 × 3
   home_ID cooling_system usage_kWh
     <int> <chr>              <dbl>
 1       1 AC                 1795.
 2       2 AC                 1641.
 3       3 AC                 1468.
 4       4 AC                 1436.
 5       5 AC                 1847.
 6       6 AC                 1888.
 7       7 AC                 1660.
 8       8 AC                 1462.
 9       9 AC                 1133.
10      10 AC                 1164.
# ℹ 599,990 more rows
…
[1] TRUE

16. Interpreting the Confidence Interval

We are “95% confident” that the true mean commute time for this population of Phoenix houses is between 1325.4294955 and 1366.9952348 kilowatt-hours. This is the same as saying that if we were to take many samples of size 100 and calculate the confidence interval for each sample, we would expect 95% of those intervals to contain the true population mean of 1360.1370117.

Session 3: Estimation via Bootstrapping Methods

17. Assume We Only Have A Sample

# Assume we only have a sample of 1000 homes and their electricity usage
usage_sample

# A tibble: 1,000 × 3
   home_ID cooling_system usage_kWh
     <int> <chr>              <dbl>
 1   86565 AC                 1826.
 2  532090 Fans                625.
 3  127999 AC                 1738.
 4  597164 Fans                503.
 5  121242 AC                 1183.
 6   53451 AC                 1397.
 7  132457 AC                 1132.
 8  503380 Fans               1022.
 9  256276 AC                 1491.
10  418903 AC                 1201.
# ℹ 990 more rows
…
- calculate(): Calculate the statistic of interest

- visualize(): Visualize the bootstrap distribution

19. Bootstrapping the Sample

# Bootstrapping the sample
set.seed(2024)
one_bootstrap <- usage_sample |> 
  specify(response = usage_kWh) |> 
  generate(reps = 1, type = "bootstrap")
one_bootstrap

Response: usage_kWh (numeric)
# A tibble: 1,000 × 2
# Groups:   replicate [1]
   replicate usage_kWh
       <int>     <dbl>
 1         1     1933.
 2         1     1733.
 3         1      947.
 4         1     1497.
 5         1     1980.
 6         1     1334.
 7         1      784.
 8         1     1175.
 9         1     1593.
10         1     1431.
# ℹ 990 more rows
…
[1] 1332.641

21. Bootstrapping 1000 Samples

# Bootstrapping 1000 samples
many_bootstraps <- usage_sample |> 
  specify(response = usage_kWh) |> 
  generate(reps = 1000, type = "bootstrap")
many_bootstraps

Response: usage_kWh (numeric)
# A tibble: 1,000,000 × 2
# Groups:   replicate [1,000]
   replicate usage_kWh
       <int>     <dbl>
 1         1      727.
 2         1     1757.
 3         1     1343.
 4         1      796.
 5         1     1542.
 6         1     1609.
 7         1     2069.
 8         1     1044.
 9         1     2030.
10         1     1511.
# ℹ 999,990 more rows

22. Get the Mean of Each Bootstrap Sample

# Calculate the mean of each bootstrap sample
bootstrap_means <- many_bootstraps |> 
  calculate(stat = "mean")
bootstrap_means

Response: usage_kWh (numeric)
# A tibble: 1,000 × 2
   replicate  stat
       <int> <dbl>
 1         1 1357.
 2         2 1338.
 3         3 1335.
 4         4 1347.
 5         5 1340.
 6         6 1336.
 7         7 1345.
 8         8 1337.
 9         9 1372.
10        10 1377.
# ℹ 990 more rows
…
