Statistics in R with the tidyverse
…
A. That 95% of similarly constructed confidence intervals from repeated samples would contain the true population mean.

Explanation:

Being 95% confident means that if we repeatedly took samples and calculated confidence intervals, 95% of those intervals would capture the true population mean.

Session 9: Estimation Using Bootstrapping Methods

17. Assume We Only Have A Sample

# Assume we only have a sample of 100 adults and their commute times
commute_sample

# A tibble: 100 × 2
   person_ID commute_time
       <int>        <dbl>
 1      5698         63.2
 2      4645         20.0
 3      3488         18.6
 4      8297         31.1
 5      7802         41.8
 6      1035         24.4
 7      6045         32.7
 8      7230         19.3
 9      7420         12.0
10      8590         27.5
# ℹ 90 more rows
…
infer_framework

19. Bootstrapping the Sample

# Bootstrapping the sample
set.seed(2024)
one_bootstrap <- commute_sample |> 
  specify(response = commute_time) |> 
  generate(reps = 1, type = "bootstrap")
one_bootstrap

Response: commute_time (numeric)
# A tibble: 100 × 2
# Groups:   replicate [1]
   replicate commute_time
       <int>        <dbl>
 1         1         34.1
 2         1         40.7
 3         1         31.5
 4         1         27.3
 5         1         42.2
 6         1         42.3
 7         1         25.6
 8         1         51.4
 9         1         19.7
10         1         43.9
# ℹ 90 more rows
…
[1] 29.51807

21. Bootstrapping 1000 Samples

# Bootstrapping 1000 samples
many_bootstraps <- commute_sample |> 
  specify(response = commute_time) |> 
  generate(reps = 1000, type = "bootstrap")
many_bootstraps

Response: commute_time (numeric)
# A tibble: 100,000 × 2
# Groups:   replicate [1,000]
   replicate commute_time
       <int>        <dbl>
 1         1         27.7
 2         1         27.9
 3         1         20.3
 4         1         22.9
 5         1         31.2
 6         1         25.8
 7         1         33.9
 8         1         19.3
 9         1         27.8
10         1         25.8
# ℹ 99,990 more rows

22. Get the Mean of Each Bootstrap Sample

# Calculate the mean of each bootstrap sample
bootstrap_means <- many_bootstraps |> 
  calculate(stat = "mean")
bootstrap_means

Response: commute_time (numeric)
# A tibble: 1,000 × 2
   replicate  stat
       <int> <dbl>
 1         1  30.1
 2         2  28.9
 3         3  30.0
 4         4  30.2
 5         5  28.4
 6         6  28.8
 7         7  29.8
 8         8  30.2
 9         9  28.9
10        10  29.6
# ℹ 990 more rows
…
