Statistics in R with the tidyverse
…
The p_value column in the output table provides the \(p\)-values for testing the null hypothesis that each coefficient is equal to zero. Each of these p_values is very small, indicating that the coefficients are significantly different from zero. This corresponds to each of them being significant predictors in the model. Note also that none of the confidence intervals in the lower_ci to upper_ci columns contain zero when looking at each row.

Review Section 10.5 of ModernDive Second Edition for more details on the theory behind hypothesis testing and confidence intervals for regression coefficients.

11. Check Model Fit and Diagnostics

# Get fitted values and residuals:
fit_and_res_mult <- get_regression_points(multi_model_no_interaction)
fit_and_res_mult

# A tibble: 333 × 6
      ID body_mass_g flipper_length_mm species body_mass_g_hat residual
   <int>       <int>             <int> <fct>             <dbl>    <dbl>
 1     1        3750               181 Adelie            3337.    413. 
 2     2        3800               186 Adelie            3540.    260. 
 3     3        3250               195 Adelie            3905.   -655. 
 4     4        3450               193 Adelie            3824.   -374. 
 5     5        3650               190 Adelie            3702.    -52.0
 6     6        3625               181 Adelie            3337.    288. 
 7     7        4675               195 Adelie            3905.    770. 
 8     8        3200               182 Adelie            3377.   -177. 
 9     9        3800               191 Adelie            3743.     57.4
10    10        4400               198 Adelie            4027.    373. 
# ℹ 323 more rows
…
# Bootstrap distribution for the partial slope coefficients
set.seed(2024)
mlr_resamples <- penguins_data |> 
  specify(formula = body_mass_g ~ flipper_length_mm + species) |> 
  generate(reps = 1000, type = "bootstrap")

# Then fit a linear regression model to each replicate of data
bootstrap_models <- mlr_resamples |> 
  fit()
bootstrap_models

# A tibble: 4,000 × 3
# Groups:   replicate [1,000]
   replicate term              estimate
       <int> <chr>                <dbl>
 1         1 intercept          -5067. 
 2         1 flipper_length_mm     46.3
 3         1 speciesChinstrap    -320. 
 4         1 speciesGentoo         92.3
 5         2 intercept          -3609. 
 6         2 flipper_length_mm     38.4
 7         2 speciesChinstrap    -147. 
 8         2 speciesGentoo        371. 
 9         3 intercept          -2408. 
10         3 flipper_length_mm     32.3
# ℹ 3,990 more rows
…
